{
  "type": "service_account",
  "project_id": "yanfoma-171612",
  "private_key_id": "1e04c352e1a4369dbac464780a332c2b50b049a9",
  "private_key": "-----BEGIN PRIVATE KEY-----\nMIIEvwIBADANBgkqhkiG9w0BAQEFAASCBKkwggSlAgEAAoIBAQCgQEOuW5vMGsjL\nW9uMRObCDeBkSgehgzCn+sd/1chjBcCRVxr9ul1s2MyxUwEnode55ydmRG3OUG00\nTcx+q4qEqvGnxPtrtUfzD5nB2jxrzAEDy/ZMdhRRBEVH7QJ/6CleIyXvR76epvnT\no7bi0/7N5lzkHogN3GlW3/lcrWUaSPj1uu4KScnutt678AeGkhymc2YQ+tSlXs35\nl8Vid4981Z63Pn17LtGkB8bms0VnNWUxQcdjbS2ZBqF7RxSqIm1MbUMD7eMHR5Ip\nvaxc00Xh+QXXeKLhVoUKl4+iZfowQQSaUS3yZ87CAJnDyb43y0iRIqv8nmCRxEz8\nuUWAcqS/AgMBAAECggEASEj0vp+ABW9Hh8Olov4pgPs1bsed7ZL5zavndZh/TXt4\nw5ahDDaWkdSxcINakAAHCUplkVHonhnVSLSXO8QxNWrOmrjWGF2rWM5+sty4SH+7\nLXVBYngY7fqZLbqRWBTnJBmCsQ6Rw4raQkck5ehulX4GBLho8qertI5PMyjb5CCz\nwdeZw89xOSTtYaJsAqZPu9+sMaW9iRN4fLtucOlIESfAIzdBygwiv/dNjtU9/TRZ\ngKogz9bw9YwQHDyRhJYhqQUK0JgyGlPai9r7pKjycVFFQ6RGXUmIXafd0PqYVXAO\ne6rLTUwiJD/3GJsIAYZzWJ2+gTbyhFUfb4Vm+VOfEQKBgQDLJiOje7OkufyKxXQ+\nlMIo7GRzGaX9vQ4I2bBNYsNYPG9y38wxlshrDuLqepLsE4K8ZOdSV6vZ304cFfnO\nJxRfSlQbockHG1SspGJHu+/JPq1pwli6BzthiCBMb6urJxPp1RAaJHalRhNSWnGX\nLAaS50K98Fg0ufO/vn4HR9cwFQKBgQDJ8RevMEVtZ/C9zDDhi93kFe0kCctqg8jD\ndc9MPypGTGczAOW48SXYCr4/NjiW0yHPXC2NXOHLVHZCb5EDpgasqZbgtJxgB9D6\nM/WTbc7m1sV/4OAoBSVcOIbayegJysVB4WMrzvxxIbVgjfTscv0lfI6xCk3ux9Tz\n8T0k13ligwKBgQCaGGQQLlUmLq4R1ZVHoy9kO2w2os32muF6dSX2jWQAGlevm3MY\nane8PZ6Cnle0G1if7ypIm5gPvANT6peCeMJLReZmz2Hdsi2Yh1jFcRmCXbjM8E69\nTZ8NbGSTlmFxgkLorGV6bw5Qb8dYQKLJOOwDoshNq3I9DJCIccbHXwcrwQKBgQCr\noKbjcqAe+s7FUExe9LNyDRyNm3Fxpm0zieXTxH9WXcr7sxCKnRDvyzmjmZ6AuRIs\nHQht83nHiJI1poJV2n4jssKTWYzppNr8OrrFQPcug2w5YdLA0JbPCQ+71QvLfrUl\nZ7wUWId+UwrG8/8sEhKKEJFpb/uKK/YWGXpA3IzCpwKBgQC2xXqJYIK+5fxMIy53\nRBwg6oI2Zd9PS7zHRLkkSVs5zn6nPetnDf9tyVoTQ0CywBHZBL+qkx8KBNANQtD+\n4Tha9VemVs3j6XHjJdYumiYiWhHt05VvH9Audktluzv2jiFG6MVwDwTYbBQuYIo4\nnD/PHaqqrPC6GGps/lBy5jOp1w==\n-----END PRIVATE KEY-----\n",
  "client_email": "yanfoma@yanfoma-171612.iam.gserviceaccount.com",
  "client_id": "111223708565092887228",
  "auth_uri": "https://accounts.google.com/o/oauth2/auth",
  "token_uri": "https://accounts.google.com/o/oauth2/token",
  "auth_provider_x509_cert_url": "https://www.googleapis.com/oauth2/v1/certs",
  "client_x509_cert_url": "https://www.googleapis.com/robot/v1/metadata/x509/yanfoma%40yanfoma-171612.iam.gserviceaccount.com"
}
